%YAML 1.1
%TAG !u! tag:unity3d.com,2011:
--- !u!114 &11400000
MonoBehaviour:
  m_ObjectHideFlags: 0
  m_CorrespondingSourceObject: {fileID: 0}
  m_PrefabInstance: {fileID: 0}
  m_PrefabAsset: {fileID: 0}
  m_GameObject: {fileID: 0}
  m_Enabled: 1
  m_EditorHideFlags: 0
  m_Script: {fileID: 11500000, guid: 3d505ffed51d10941970afb96dec8ef5, type: 3}
  m_Name: Rookie's parry
  m_EditorClassIdentifier: 
  cardName: Rookie's parry
  cost: 2
  picture: {fileID: 0}
  description: 'Barely a parry, but better than taking a hit to the face. '
  cardEffects:
  - abilities: 2
    abilityImage: {fileID: 0}
    EffectValues: {x: 0, y: 2}
